version_2/top.vcd
$date
	Tue May 19 19:19:18 2020
$end
$version
	Icarus Verilog
$end
$timescale
	1ns
$end
$scope module aes $end
$scope module i_uut $end
$var wire 1 ! clk $end
$var wire 2 " cmd [2:1] $end
$var wire 8 # din [8:1] $end
$var wire 1 $ rst_ $end
$var wire 1 % start $end
$var wire 1 & ready $end
$var wire 128 ' plain [128:1] $end
$var wire 1 ( ok $end
$var wire 128 ) key [128:1] $end
$var wire 8 * dout [8:1] $end
$var wire 128 + cipher [128:1] $end
$scope module engine_uut $end
$var wire 128 , cipher [128:1] $end
$var wire 1 ! clk $end
$var wire 1 - ok_t $end
$var wire 1 $ rst_ $end
$var wire 1 . trigger_final $end
$var wire 1 % start $end
$var wire 128 / plain_t [128:1] $end
$var wire 128 0 plain_sub [128:1] $end
$var wire 128 1 plain_row [128:1] $end
$var wire 128 2 plain_col [128:1] $end
$var wire 128 3 plain_add [128:1] $end
$var wire 128 4 plain [128:1] $end
$var wire 1 5 ok_sub $end
$var wire 1 6 ok_row $end
$var wire 1 7 ok_col $end
$var wire 1 8 ok_add $end
$var wire 1 ( ok $end
$var wire 128 9 key [128:1] $end
$var wire 1 : is_first $end
$var wire 1 ; is_final $end
$var reg 1 < add_cnt $end
$var reg 4 = counter_t [4:1] $end
$var reg 1 > initial_trig $end
$var reg 1 ? is_start $end
$var reg 1 @ trigger $end
$scope module addkey_uut $end
$var wire 1 ! clk $end
$var wire 4 A counter_t [4:1] $end
$var wire 1 : is_first $end
$var wire 128 B plain_col [128:1] $end
$var wire 1 C ok_key $end
$var wire 1 7 ok_col $end
$var wire 128 D newkey [128:1] $end
$var wire 128 E key [128:1] $end
$var reg 1 8 ok_add $end
$var reg 128 F plain_add [128:1] $end
$var reg 1 G refresh_col $end
$var reg 1 H refresh_key $end
$scope module key_uut $end
$var wire 1 ! clk $end
$var wire 4 I counter_t [4:1] $end
$var wire 1 8 ok_add $end
$var wire 128 J newkey [128:1] $end
$var wire 128 K key_processed [128:1] $end
$var wire 128 L key [128:1] $end
$var reg 4 M counter_buf [4:1] $end
$var reg 1 C ok_key $end
$var reg 128 N prekey [128:1] $end
$scope module xbox_uut $end
$var wire 4 O counter_t [4:1] $end
$var wire 128 P prekey [128:1] $end
$var wire 32 Q t [32:1] $end
$var wire 8 R rcon [8:1] $end
$var wire 128 S key_processed [128:1] $end
$scope module tbox_uut $end
$var wire 8 T rcon [8:1] $end
$var wire 32 U w [32:1] $end
$var wire 32 V w_sub [32:1] $end
$var wire 32 W t [32:1] $end
$scope module sbox_key_uut1 $end
$var wire 8 X a [7:0] $end
$var reg 8 Y d [7:0] $end
$upscope $end
$scope module sbox_key_uut2 $end
$var wire 8 Z a [7:0] $end
$var reg 8 [ d [7:0] $end
$upscope $end
$scope module sbox_key_uut3 $end
$var wire 8 \ a [7:0] $end
$var reg 8 ] d [7:0] $end
$upscope $end
$scope module sbox_key_uut4 $end
$var wire 8 ^ a [7:0] $end
$var reg 8 _ d [7:0] $end
$upscope $end
$upscope $end
$upscope $end
$upscope $end
$upscope $end
$scope module mixcol_uut $end
$var wire 1 ! clk $end
$var wire 1 ; is_final $end
$var wire 1 : is_first $end
$var wire 1 7 ok_col $end
$var wire 128 ` plain_row [128:1] $end
$var wire 128 a plain_col [128:1] $end
$var wire 128 b plain_buf2 [128:1] $end
$var wire 1 6 ok_row $end
$upscope $end
$scope module shiftrow_uut $end
$var wire 1 ! clk $end
$var wire 1 : is_first $end
$var wire 1 6 ok_row $end
$var wire 128 c plain_sub [128:1] $end
$var wire 128 d plain_row [128:1] $end
$var wire 1 5 ok_sub $end
$upscope $end
$scope module srd_uut $end
$var wire 1 ! clk $end
$var wire 1 : is_first $end
$var wire 1 - ok_t $end
$var wire 128 e plain_t [128:1] $end
$var wire 1 f refresh $end
$var wire 1 . trigger $end
$var wire 128 g plain_sub [128:1] $end
$var wire 128 h plain_buf [128:1] $end
$var wire 1 5 ok_sub $end
$var reg 1 i refresh_add $end
$var reg 1 j refresh_t $end
$scope begin generate_srd[1] $end
$scope module sbox_uut $end
$var wire 8 k a [7:0] $end
$var reg 8 l d [7:0] $end
$upscope $end
$upscope $end
$scope begin generate_srd[9] $end
$scope module sbox_uut $end
$var wire 8 m a [7:0] $end
$var reg 8 n d [7:0] $end
$upscope $end
$upscope $end
$scope begin generate_srd[17] $end
$scope module sbox_uut $end
$var wire 8 o a [7:0] $end
$var reg 8 p d [7:0] $end
$upscope $end
$upscope $end
$scope begin generate_srd[25] $end
$scope module sbox_uut $end
$var wire 8 q a [7:0] $end
$var reg 8 r d [7:0] $end
$upscope $end
$upscope $end
$scope begin generate_srd[33] $end
$scope module sbox_uut $end
$var wire 8 s a [7:0] $end
$var reg 8 t d [7:0] $end
$upscope $end
$upscope $end
$scope begin generate_srd[41] $end
$scope module sbox_uut $end
$var wire 8 u a [7:0] $end
$var reg 8 v d [7:0] $end
$upscope $end
$upscope $end
$scope begin generate_srd[49] $end
$scope module sbox_uut $end
$var wire 8 w a [7:0] $end
$var reg 8 x d [7:0] $end
$upscope $end
$upscope $end
$scope begin generate_srd[57] $end
$scope module sbox_uut $end
$var wire 8 y a [7:0] $end
$var reg 8 z d [7:0] $end
$upscope $end
$upscope $end
$scope begin generate_srd[65] $end
$scope module sbox_uut $end
$var wire 8 { a [7:0] $end
$var reg 8 | d [7:0] $end
$upscope $end
$upscope $end
$scope begin generate_srd[73] $end
$scope module sbox_uut $end
$var wire 8 } a [7:0] $end
$var reg 8 ~ d [7:0] $end
$upscope $end
$upscope $end
$scope begin generate_srd[81] $end
$scope module sbox_uut $end
$var wire 8 !" a [7:0] $end
$var reg 8 "" d [7:0] $end
$upscope $end
$upscope $end
$scope begin generate_srd[89] $end
$scope module sbox_uut $end
$var wire 8 #" a [7:0] $end
$var reg 8 $" d [7:0] $end
$upscope $end
$upscope $end
$scope begin generate_srd[97] $end
$scope module sbox_uut $end
$var wire 8 %" a [7:0] $end
$var reg 8 &" d [7:0] $end
$upscope $end
$upscope $end
$scope begin generate_srd[105] $end
$scope module sbox_uut $end
$var wire 8 '" a [7:0] $end
$var reg 8 (" d [7:0] $end
$upscope $end
$upscope $end
$scope begin generate_srd[113] $end
$scope module sbox_uut $end
$var wire 8 )" a [7:0] $end
$var reg 8 *" d [7:0] $end
$upscope $end
$upscope $end
$scope begin generate_srd[121] $end
$scope module sbox_uut $end
$var wire 8 +" a [7:0] $end
$var reg 8 ," d [7:0] $end
$upscope $end
$upscope $end
$upscope $end
$upscope $end
$scope module input_uut $end
$var wire 1 ! clk $end
$var wire 2 -" cmd [2:1] $end
$var wire 8 ." din [8:1] $end
$var wire 1 $ rst_ $end
$var wire 1 % start $end
$var wire 1 & ready $end
$var wire 1 /" plain_ok_ $end
$var wire 128 0" plain [128:1] $end
$var wire 1 1" key_ok_ $end
$var wire 128 2" key [128:1] $end
$var wire 1 3" cmd_st $end
$var wire 1 4" cmd_sp $end
$var wire 1 5" cmd_sk $end
$var reg 2 6" next_state [2:1] $end
$var reg 2 7" state [2:1] $end
$scope module key_uut $end
$var wire 1 ! clk $end
$var wire 1 5" cmd_sk $end
$var wire 8 8" din [8:1] $end
$var wire 1 1" key_ok_ $end
$var wire 1 $ rst_ $end
$var reg 5 9" counter [5:1] $end
$var reg 1 :" is_working $end
$var reg 128 ;" key [128:1] $end
$upscope $end
$scope module plain_uut $end
$var wire 1 ! clk $end
$var wire 1 4" cmd_sp $end
$var wire 8 <" din [8:1] $end
$var wire 1 /" plain_ok_ $end
$var wire 1 $ rst_ $end
$var reg 5 =" counter [5:1] $end
$var reg 1 >" is_working $end
$var reg 128 ?" plain [128:1] $end
$upscope $end
$upscope $end
$scope module output_uut $end
$var wire 128 @" cipher [128:1] $end
$var wire 1 ! clk $end
$var wire 1 ( ok $end
$var wire 1 $ rst_ $end
$var wire 1 & ready $end
$var wire 8 A" dout [8:1] $end
$var reg 128 B" cipher_buf [128:1] $end
$var reg 5 C" counter [5:1] $end
$var reg 1 D" is_working $end
$upscope $end
$upscope $end
$upscope $end
$enddefinitions $end
#0
$dumpvars
xD"
bx C"
bx B"
bx A"
bx @"
bx ?"
x>"
bx ="
b0 <"
bx ;"
x:"
bx 9"
b0 8"
b0 7"
bx 6"
05"
04"
03"
bx 2"
x1"
bx 0"
x/"
b0 ."
b0 -"
bx ,"
bx +"
bx *"
bx )"
bx ("
bx '"
bx &"
bx %"
bx $"
bx #"
bx ""
bx !"
bx ~
bx }
bx |
bx {
bx z
bx y
bx x
bx w
bx v
bx u
bx t
bx s
bx r
bx q
bx p
bx o
bx n
bx m
bx l
bx k
xj
xi
bx h
bx g
xf
bx e
bx d
bx c
bx b
bx a
bx `
bx _
bx ^
bx ]
bx \
bx [
bx Z
bx Y
bx X
bx W
bx V
bx U
bx T
bx S
bx R
bx Q
bx P
bx O
bx N
bx M
bx L
bx K
bx J
bx I
xH
xG
bx F
bx E
bx D
xC
bx B
bx A
x@
x?
x>
bx =
x<
x;
x:
bx 9
x8
07
06
05
bx 4
bx 3
bx 2
bx 1
bx 0
bx /
x.
0-
bx ,
bx +
bx *
bx )
x(
bx '
x&
0%
0$
b0 #
b0 "
0!
$end
#10
1/"
11"
0.
b0 *
b0 A"
b0 '
b0 4
b0 0"
b0 ?"
b0 ="
0>"
b0 )
b0 9
b0 E
b0 L
b0 2"
b0 ;"
b0 9"
0:"
b0 7"
08
0H
0G
0>
0?
0@
0<
0;
0:
0(
b0 =
b0 A
b0 I
b0 B"
0&
b0 C"
0D"
1!
#20
0!
#30
b0 7"
1!
#40
0!
#50
b0 7"
1!
#60
0!
#70
b0 7"
1!
#80
0!
#90
b0 7"
1!
#100
b0 6"
0!
1$
#110
1!
#120
0!
#130
1!
#140
0!
#150
1!
#160
0!
#170
1!
#180
0!
#190
1!
#200
1>"
b1 6"
0!
14"
b1 "
b1 -"
#210
b1 ="
b1 7"
1!
#220
0!
b100 #
b100 ."
b100 8"
b100 <"
#230
b100 '
b100 4
b100 0"
b100 ?"
b10 ="
1!
#240
0!
b10010 #
b10010 ."
b10010 8"
b10010 <"
#250
b10000010010 '
b10000010010 4
b10000010010 0"
b10000010010 ?"
b11 ="
1!
#260
0!
b10100 #
b10100 ."
b10100 8"
b10100 <"
#270
b1000001001000010100 '
b1000001001000010100 4
b1000001001000010100 0"
b1000001001000010100 ?"
b100 ="
1!
#280
0!
b10010 #
b10010 ."
b10010 8"
b10010 <"
#290
b100000100100001010000010010 '
b100000100100001010000010010 4
b100000100100001010000010010 0"
b100000100100001010000010010 ?"
b101 ="
1!
#300
0!
b100 #
b100 ."
b100 8"
b100 <"
#310
b10000010010000101000001001000000100 '
b10000010010000101000001001000000100 4
b10000010010000101000001001000000100 0"
b10000010010000101000001001000000100 ?"
b110 ="
1!
#320
0!
b10010 #
b10010 ."
b10010 8"
b10010 <"
#330
b1000001001000010100000100100000010000010010 '
b1000001001000010100000100100000010000010010 4
b1000001001000010100000100100000010000010010 0"
b1000001001000010100000100100000010000010010 ?"
b111 ="
1!
#340
0!
b0 #
b0 ."
b0 8"
b0 <"
#350
b100000100100001010000010010000001000001001000000000 '
b100000100100001010000010010000001000001001000000000 4
b100000100100001010000010010000001000001001000000000 0"
b100000100100001010000010010000001000001001000000000 ?"
b1000 ="
1!
#360
0!
b1100 #
b1100 ."
b1100 8"
b1100 <"
#370
b10000010010000101000001001000000100000100100000000000001100 '
b10000010010000101000001001000000100000100100000000000001100 4
b10000010010000101000001001000000100000100100000000000001100 0"
b10000010010000101000001001000000100000100100000000000001100 ?"
b1001 ="
1!
#380
0!
b0 #
b0 ."
b0 8"
b0 <"
#390
b1000001001000010100000100100000010000010010000000000000110000000000 '
b1000001001000010100000100100000010000010010000000000000110000000000 4
b1000001001000010100000100100000010000010010000000000000110000000000 0"
b1000001001000010100000100100000010000010010000000000000110000000000 ?"
b1010 ="
1!
#400
0!
b10011 #
b10011 ."
b10011 8"
b10011 <"
#410
b100000100100001010000010010000001000001001000000000000011000000000000010011 '
b100000100100001010000010010000001000001001000000000000011000000000000010011 4
b100000100100001010000010010000001000001001000000000000011000000000000010011 0"
b100000100100001010000010010000001000001001000000000000011000000000000010011 ?"
b1011 ="
1!
#420
0!
b10001 #
b10001 ."
b10001 8"
b10001 <"
#430
b10000010010000101000001001000000100000100100000000000001100000000000001001100010001 '
b10000010010000101000001001000000100000100100000000000001100000000000001001100010001 4
b10000010010000101000001001000000100000100100000000000001100000000000001001100010001 0"
b10000010010000101000001001000000100000100100000000000001100000000000001001100010001 ?"
b1100 ="
1!
#440
0!
b1000 #
b1000 ."
b1000 8"
b1000 <"
#450
b1000001001000010100000100100000010000010010000000000000110000000000000100110001000100001000 '
b1000001001000010100000100100000010000010010000000000000110000000000000100110001000100001000 4
b1000001001000010100000100100000010000010010000000000000110000000000000100110001000100001000 0"
b1000001001000010100000100100000010000010010000000000000110000000000000100110001000100001000 ?"
b1101 ="
1!
#460
0!
b100011 #
b100011 ."
b100011 8"
b100011 <"
#470
b100000100100001010000010010000001000001001000000000000011000000000000010011000100010000100000100011 '
b100000100100001010000010010000001000001001000000000000011000000000000010011000100010000100000100011 4
b100000100100001010000010010000001000001001000000000000011000000000000010011000100010000100000100011 0"
b100000100100001010000010010000001000001001000000000000011000000000000010011000100010000100000100011 ?"
b1110 ="
1!
#480
0!
b11001 #
b11001 ."
b11001 8"
b11001 <"
#490
b10000010010000101000001001000000100000100100000000000001100000000000001001100010001000010000010001100011001 '
b10000010010000101000001001000000100000100100000000000001100000000000001001100010001000010000010001100011001 4
b10000010010000101000001001000000100000100100000000000001100000000000001001100010001000010000010001100011001 0"
b10000010010000101000001001000000100000100100000000000001100000000000001001100010001000010000010001100011001 ?"
b1111 ="
1!
#500
0!
#510
b0 6"
0/"
b1000001001000010100000100100000010000010010000000000000110000000000000100110001000100001000001000110001100100011001 '
b1000001001000010100000100100000010000010010000000000000110000000000000100110001000100001000001000110001100100011001 4
b1000001001000010100000100100000010000010010000000000000110000000000000100110001000100001000001000110001100100011001 0"
b1000001001000010100000100100000010000010010000000000000110000000000000100110001000100001000001000110001100100011001 ?"
b10000 ="
1!
#520
0!
#530
b1 6"
b0 7"
1!
#540
0!
#550
b0 6"
b1 7"
1!
#560
0!
#570
b1 6"
b0 7"
1!
#580
0!
#590
b0 6"
b1 7"
1!
#600
1:"
0!
b100100 #
b100100 ."
b100100 8"
b100100 <"
04"
15"
b10 "
b10 -"
#610
b10 6"
b100100 )
b100100 9
b100100 E
b100100 L
b100100 2"
b100100 ;"
b1 9"
b0 7"
1!
#620
0!
b1110101 #
b1110101 ."
b1110101 8"
b1110101 <"
#630
b10 7"
b10010001110101 )
b10010001110101 9
b10010001110101 E
b10010001110101 L
b10010001110101 2"
b10010001110101 ;"
b10 9"
1!
#640
0!
b10100010 #
b10100010 ."
b10100010 8"
b10100010 <"
#650
b1001000111010110100010 )
b1001000111010110100010 9
b1001000111010110100010 E
b1001000111010110100010 L
b1001000111010110100010 2"
b1001000111010110100010 ;"
b11 9"
1!
#660
0!
b10110011 #
b10110011 ."
b10110011 8"
b10110011 <"
#670
b100100011101011010001010110011 )
b100100011101011010001010110011 9
b100100011101011010001010110011 E
b100100011101011010001010110011 L
b100100011101011010001010110011 2"
b100100011101011010001010110011 ;"
b100 9"
1!
#680
0!
b110100 #
b110100 ."
b110100 8"
b110100 <"
#690
b10010001110101101000101011001100110100 )
b10010001110101101000101011001100110100 9
b10010001110101101000101011001100110100 E
b10010001110101101000101011001100110100 L
b10010001110101101000101011001100110100 2"
b10010001110101101000101011001100110100 ;"
b101 9"
1!
#700
0!
b1110101 #
b1110101 ."
b1110101 8"
b1110101 <"
#710
b1001000111010110100010101100110011010001110101 )
b1001000111010110100010101100110011010001110101 9
b1001000111010110100010101100110011010001110101 E
b1001000111010110100010101100110011010001110101 L
b1001000111010110100010101100110011010001110101 2"
b1001000111010110100010101100110011010001110101 ;"
b110 9"
1!
#720
0!
b1010110 #
b1010110 ."
b1010110 8"
b1010110 <"
#730
b100100011101011010001010110011001101000111010101010110 )
b100100011101011010001010110011001101000111010101010110 9
b100100011101011010001010110011001101000111010101010110 E
b100100011101011010001010110011001101000111010101010110 L
b100100011101011010001010110011001101000111010101010110 2"
b100100011101011010001010110011001101000111010101010110 ;"
b111 9"
1!
#740
0!
b10001000 #
b10001000 ."
b10001000 8"
b10001000 <"
#750
b10010001110101101000101011001100110100011101010101011010001000 )
b10010001110101101000101011001100110100011101010101011010001000 9
b10010001110101101000101011001100110100011101010101011010001000 E
b10010001110101101000101011001100110100011101010101011010001000 L
b10010001110101101000101011001100110100011101010101011010001000 2"
b10010001110101101000101011001100110100011101010101011010001000 ;"
b1000 9"
1!
#760
0!
b110001 #
b110001 ."
b110001 8"
b110001 <"
#770
b1001000111010110100010101100110011010001110101010101101000100000110001 )
b1001000111010110100010101100110011010001110101010101101000100000110001 9
b1001000111010110100010101100110011010001110101010101101000100000110001 E
b1001000111010110100010101100110011010001110101010101101000100000110001 L
b1001000111010110100010101100110011010001110101010101101000100000110001 2"
b1001000111010110100010101100110011010001110101010101101000100000110001 ;"
b1001 9"
1!
#780
0!
b11100010 #
b11100010 ."
b11100010 8"
b11100010 <"
#790
b100100011101011010001010110011001101000111010101010110100010000011000111100010 )
b100100011101011010001010110011001101000111010101010110100010000011000111100010 9
b100100011101011010001010110011001101000111010101010110100010000011000111100010 E
b100100011101011010001010110011001101000111010101010110100010000011000111100010 L
b100100011101011010001010110011001101000111010101010110100010000011000111100010 2"
b100100011101011010001010110011001101000111010101010110100010000011000111100010 ;"
b1010 9"
1!
#800
0!
b10010 #
b10010 ."
b10010 8"
b10010 <"
#810
b10010001110101101000101011001100110100011101010101011010001000001100011110001000010010 )
b10010001110101101000101011001100110100011101010101011010001000001100011110001000010010 9
b10010001110101101000101011001100110100011101010101011010001000001100011110001000010010 E
b10010001110101101000101011001100110100011101010101011010001000001100011110001000010010 L
b10010001110101101000101011001100110100011101010101011010001000001100011110001000010010 2"
b10010001110101101000101011001100110100011101010101011010001000001100011110001000010010 ;"
b1011 9"
1!
#820
0!
b0 #
b0 ."
b0 8"
b0 <"
#830
b1001000111010110100010101100110011010001110101010101101000100000110001111000100001001000000000 )
b1001000111010110100010101100110011010001110101010101101000100000110001111000100001001000000000 9
b1001000111010110100010101100110011010001110101010101101000100000110001111000100001001000000000 E
b1001000111010110100010101100110011010001110101010101101000100000110001111000100001001000000000 L
b1001000111010110100010101100110011010001110101010101101000100000110001111000100001001000000000 2"
b1001000111010110100010101100110011010001110101010101101000100000110001111000100001001000000000 ;"
b1100 9"
1!
#840
0!
b10011 #
b10011 ."
b10011 8"
b10011 <"
#850
b100100011101011010001010110011001101000111010101010110100010000011000111100010000100100000000000010011 )
b100100011101011010001010110011001101000111010101010110100010000011000111100010000100100000000000010011 9
b100100011101011010001010110011001101000111010101010110100010000011000111100010000100100000000000010011 E
b100100011101011010001010110011001101000111010101010110100010000011000111100010000100100000000000010011 L
b100100011101011010001010110011001101000111010101010110100010000011000111100010000100100000000000010011 2"
b100100011101011010001010110011001101000111010101010110100010000011000111100010000100100000000000010011 ;"
b1101 9"
1!
#860
0!
b10101010 #
b10101010 ."
b10101010 8"
b10101010 <"
#870
b10010001110101101000101011001100110100011101010101011010001000001100011110001000010010000000000001001110101010 )
b10010001110101101000101011001100110100011101010101011010001000001100011110001000010010000000000001001110101010 9
b10010001110101101000101011001100110100011101010101011010001000001100011110001000010010000000000001001110101010 E
b10010001110101101000101011001100110100011101010101011010001000001100011110001000010010000000000001001110101010 L
b10010001110101101000101011001100110100011101010101011010001000001100011110001000010010000000000001001110101010 2"
b10010001110101101000101011001100110100011101010101011010001000001100011110001000010010000000000001001110101010 ;"
b1110 9"
1!
#880
0!
b1010100 #
b1010100 ."
b1010100 8"
b1010100 <"
#890
b1001000111010110100010101100110011010001110101010101101000100000110001111000100001001000000000000100111010101001010100 )
b1001000111010110100010101100110011010001110101010101101000100000110001111000100001001000000000000100111010101001010100 9
b1001000111010110100010101100110011010001110101010101101000100000110001111000100001001000000000000100111010101001010100 E
b1001000111010110100010101100110011010001110101010101101000100000110001111000100001001000000000000100111010101001010100 L
b1001000111010110100010101100110011010001110101010101101000100000110001111000100001001000000000000100111010101001010100 2"
b1001000111010110100010101100110011010001110101010101101000100000110001111000100001001000000000000100111010101001010100 ;"
b1111 9"
1!
#900
0!
b10000111 #
b10000111 ."
b10000111 8"
b10000111 <"
#910
b0 6"
01"
b100100011101011010001010110011001101000111010101010110100010000011000111100010000100100000000000010011101010100101010010000111 )
b100100011101011010001010110011001101000111010101010110100010000011000111100010000100100000000000010011101010100101010010000111 9
b100100011101011010001010110011001101000111010101010110100010000011000111100010000100100000000000010011101010100101010010000111 E
b100100011101011010001010110011001101000111010101010110100010000011000111100010000100100000000000010011101010100101010010000111 L
b100100011101011010001010110011001101000111010101010110100010000011000111100010000100100000000000010011101010100101010010000111 2"
b100100011101011010001010110011001101000111010101010110100010000011000111100010000100100000000000010011101010100101010010000111 ;"
b10000 9"
1!
#920
0!
#930
b10 6"
b0 7"
1!
#940
0!
#950
b0 6"
b10 7"
1!
#960
0!
#970
b10 6"
b0 7"
1!
#980
0!
#990
b0 6"
b10 7"
1!
#1000
b10000010010000101000001001000000100000100100000000000001100000000000001001100010001000010000010001100011001000110010 b
b1000001001000010100000100100000010000010010000000000000110000000000000100110001000100001000001000110001100100011001 2
b1000001001000010100000100100000010000010010000000000000110000000000000100110001000100001000001000110001100100011001 B
b1000001001000010100000100100000010000010010000000000000110000000000000100110001000100001000001000110001100100011001 a
b11010100 l
b11010100 n
b100110 p
b110000 r
b10000010 t
b1111101 v
b1100011 x
b11111110 z
b1100011 |
b11001001 ~
b11110010 ""
b11001001 $"
b11111010 &"
b11001001 ("
b11110010 *"
b1100011111100101100100111111010110010011111001011001001011000111111111001100011011111011000001000110000001001101101010011010100 h
b1100011 ,"
b1000001001000010100000100100000010000010010000000000000110000000000000100110001000100001000001000110001100100011001 1
b1000001001000010100000100100000010000010010000000000000110000000000000100110001000100001000001000110001100100011001 `
b1000001001000010100000100100000010000010010000000000000110000000000000100110001000100001000001000110001100100011001 d
1-
b11001 k
b11001 m
b100011 o
b1000 q
b10001 s
b10011 u
b0 w
b1100 y
b0 {
b10010 }
b100 !"
b10010 #"
b10100 %"
b10010 '"
b100 )"
b0 +"
b1000001001000010100000100100000010000010010000000000000110000000000000100110001000100001000001000110001100100011001 0
b1000001001000010100000100100000010000010010000000000000110000000000000100110001000100001000001000110001100100011001 c
b1000001001000010100000100100000010000010010000000000000110000000000000100110001000100001000001000110001100100011001 g
b1000001001000010100000100100000010000010010000000000000110000000000000100110001000100001000001000110001100100011001 /
b1000001001000010100000100100000010000010010000000000000110000000000000100110001000100001000001000110001100100011001 e
b100100011101011010001010110011001101000111010101010110100010000011000111100010000100100000000000010011101010100101010010000111 D
b100100011101011010001010110011001101000111010101010110100010000011000111100010000100100000000000010011101010100101010010000111 J
1?
1:
b1 =
b1 A
b1 I
0!
05"
1%
13"
b11 "
b11 -"
#1010
1G
17
16
15
b11 6"
1.
b0 7"
0?
1>
1!
#1020
0!
#1030
b10001001010101011011010111001110101111010010000011100011010001101000110011000010111100010100011010011111011010001010010111000001 K
b10001001010101011011010111001110101111010010000011100011010001101000110011000010111100010100011010011111011010001010010111000001 S
b10101101001000000001011101111101 Q
b10101101001000000001011101111101 W
b10101100 Y
b100000 [
b10111 ]
b10101100001000000001011101111101 V
b1111101 _
b10101010 X
b1010100 Z
b10000111 \
b10011 ^
b1 R
b1 T
b10011101010100101010010000111 U
b1 M
b1 O
b100100011101011010001010110011001101000111010101010110100010000011000111100010000100100000000000010011101010100101010010000111 N
b100100011101011010001010110011001101000111010101010110100010000011000111100010000100100000000000010011101010100101010010000111 P
1<
07
06
05
0.
0>
0G
18
b100100011100011011000010100111001001100111000101000100100010000011110111100010000000010001000100011011100010010100110110011110 +
b100100011100011011000010100111001001100111000101000100100010000011110111100010000000010001000100011011100010010100110110011110 ,
b100100011100011011000010100111001001100111000101000100100010000011110111100010000000010001000100011011100010010100110110011110 @"
b100100011100011011000010100111001001100111000101000100100010000011110111100010000000010001000100011011100010010100110110011110 3
b100100011100011011000010100111001001100111000101000100100010000011110111100010000000010001000100011011100010010100110110011110 F
b11 7"
1!
#1040
0!
#1050
1G
b1011 l
b11100011 n
b10100111 p
b10101111 r
b1111100 v
b10011000 x
b100111 z
b11000100 |
b11011 ~
b10100011 ""
b11110111 $"
b1011100 &"
b11100111 ("
b10100011 *"
b110110101000111110011101011100111101111010001100011011110001000010011110011000011111001000001010101111101001111110001100001011 h
b110110 ,"
b1101100010111011111100000010110111101010010101111011101101110000100111001010101110101011001001101000101010111010011011000011111 b
17
16
15
b10011110 k
b1001101 m
b10001001 o
b11011 q
b1 u
b11100010 w
b111101 y
b10001000 {
b1000100 }
b1110001 !"
b100110 #"
b10100111 %"
b10110000 '"
b1110001 )"
b100100 +"
b11100101111001000111000010010011111110011011111001010110110000011001111110000100000000101011101000100010010111011010011101001101 2
b11100101111001000111000010010011111110011011111001010110110000011001111110000100000000101011101000100010010111011010011101001101 B
b11100101111001000111000010010011111110011011111001010110110000011001111110000100000000101011101000100010010111011010011101001101 a
1.
b100100011100011011000010100111001001100111000101000100100010000011110111100010000000010001000100011011100010010100110110011110 /
b100100011100011011000010100111001001100111000101000100100010000011110111100010000000010001000100011011100010010100110110011110 e
b110110101000110111110000001011111101111001100011100011010111000010011110100111111001111100010010101111101000110001101110000010 1
b110110101000110111110000001011111101111001100011100011010111000010011110100111111001111100010010101111101000110001101110000010 `
b110110101000110111110000001011111101111001100011100011010111000010011110100111111001111100010010101111101000110001101110000010 d
b110110101000111110011101011100111101111010001100011011110001000010011110011000011111001000001010101111101001111110001100001011 0
b110110101000111110011101011100111101111010001100011011110001000010011110011000011111001000001010101111101001111110001100001011 c
b110110101000111110011101011100111101111010001100011011110001000010011110011000011111001000001010101111101001111110001100001011 g
b10001001010101011011010111001110101111010010000011100011010001101000110011000010111100010100011010011111011010001010010111000001 D
b10001001010101011011010111001110101111010010000011100011010001101000110011000010111100010100011010011111011010001010010111000001 J
08
1@
0<
0:
b10 =
b10 A
b10 I
1!
#1060
0!
#1070
b1000101 Y
b110 [
b1111000 ]
b1000101000001100111100011011011 V
b11011011 _
b11001110010100111100110100010101011100110111001100101110010100111111111110110001110111110001010101100000110110010111101011010100 D
b11001110010100111100110100010101011100110111001100101110010100111111111110110001110111110001010101100000110110010111101011010100 J
07
06
05
b1000111000001100111100011011011 Q
b1000111000001100111100011011011 W
b1101000 X
b10100101 Z
b11000001 \
b10011111 ^
b11001110010100111100110100010101011100110111001100101110010100111111111110110001110111110001010101100000110110010111101011010100 K
b11001110010100111100110100010101011100110111001100101110010100111111111110110001110111110001010101100000110110010111101011010100 S
0.
b10 R
b10 T
b10011111011010001010010111000001 U
0@
1<
b10 M
b10 O
b10001001010101011011010111001110101111010010000011100011010001101000110011000010111100010100011010011111011010001010010111000001 N
b10001001010101011011010111001110101111010010000011100011010001101000110011000010111100010100011010011111011010001010010111000001 P
b11010100001101011110110100111110111000110111101001111011100110001110101010101100100001011001100111010010001001011100100011101000 2
b11010100001101011110110100111110111000110111101001111011100110001110101010101100100001011001100111010010001001011100100011101000 B
b11010100001101011110110100111110111000110111101001111011100110001110101010101100100001011001100111010010001001011100100011101000 a
b10100000000101100001101011001000001101101011010011101110100110001111101000110111010101110010111011110100100010111011000101111011 b
b1010000000010110000110101100100000110110101101001110111010011000111110110010110101001100001011101111010110010001101010110110000 1
b1010000000010110000110101100100000110110101101001110111010011000111110110010110101001100001011101111010110010001101010110110000 `
b1010000000010110000110101100100000110110101101001110111010011000111110110010110101001100001011101111010110010001101010110110000 d
b1010000110010001010011001001100000110110000101111010101000101110111110101011010000011011011000001111010100101100111011101100100 0
b1010000110010001010011001001100000110110000101111010101000101110111110101011010000011011011000001111010100101100111011101100100 c
b1010000110010001010011001001100000110110000101111010101000101110111110101011010000011011011000001111010100101100111011101100100 g
b1100100 l
b1110111 n
b10010110 p
b1111010 r
b10110000 t
b1101 v
b1011010 x
b1111101 z
b10111 |
b11010101 ~
b1011 ""
b11011 $"
b1001100 &"
b10100110 ("
b11001000 *"
b1010000110010001010011001001100000110110000101111010101000101110111110101011010000011011011000001111010100101100111011101100100 h
b1010000 ,"
b10001100 k
b10 m
b110101 o
b10111101 q
b11111100 s
b11110011 u
b1000110 w
b10011 y
b10000111 {
b10110101 }
b10011110 !"
b1000100 #"
b1011101 %"
b11000101 '"
b10110001 )"
b1101100 +"
b1101100101100011100010101011101010001001001111010110101100001110001001101000110111100111111110010111101001101010000001010001100 /
b1101100101100011100010101011101010001001001111010110101100001110001001101000110111100111111110010111101001101010000001010001100 e
0G
18
b1101100101100011100010101011101010001001001111010110101100001110001001101000110111100111111110010111101001101010000001010001100 +
b1101100101100011100010101011101010001001001111010110101100001110001001101000110111100111111110010111101001101010000001010001100 ,
b1101100101100011100010101011101010001001001111010110101100001110001001101000110111100111111110010111101001101010000001010001100 @"
b1101100101100011100010101011101010001001001111010110101100001110001001101000110111100111111110010111101001101010000001010001100 3
b1101100101100011100010101011101010001001001111010110101100001110001001101000110111100111111110010111101001101010000001010001100 F
1!
#1080
0!
#1090
1G
17
16
15
1.
08
1@
0<
b11 =
b11 A
b11 I
1!
#1100
0!
